{
    "Security.framework": 2,
    "SystemConfiguration.framework": 2,
    "ImageIO.framework": 1,
    "CoreLocation.framework": 1,
    "AVFoundation.framework": 1,
    "WebKit.framework": 1,
    "libz.tbd": 1,
    "CoreTelephony.framework": 1,
    "libz.dylib": 1,
    "MessageUI.framework": 1
}