-- Merging decision tree log ---
provider#org.apache.cordova.camera.FileProvider
INJECTED from /Users/tushar/Tushar/AirHydroRD/airhydro_rd/platforms/android/app/src/main/AndroidManifest.xml:12:9-14:20
	android:grantUriPermissions
		ADDED from /Users/tushar/Tushar/AirHydroRD/airhydro_rd/platforms/android/app/src/main/AndroidManifest.xml:12:92-126
	android:authorities
		INJECTED from /Users/tushar/Tushar/AirHydroRD/airhydro_rd/platforms/android/app/src/main/AndroidManifest.xml
		ADDED from /Users/tushar/Tushar/AirHydroRD/airhydro_rd/platforms/android/app/src/main/AndroidManifest.xml:12:19-66
	android:exported
		ADDED from /Users/tushar/Tushar/AirHydroRD/airhydro_rd/platforms/android/app/src/main/AndroidManifest.xml:12:67-91
	android:name
		ADDED from /Users/tushar/Tushar/AirHydroRD/airhydro_rd/platforms/android/app/src/main/AndroidManifest.xml:12:127-180
provider#de.appplant.cordova.emailcomposer.Provider
INJECTED from /Users/tushar/Tushar/AirHydroRD/airhydro_rd/platforms/android/app/src/main/AndroidManifest.xml:17:9-19:20
	android:grantUriPermissions
		ADDED from /Users/tushar/Tushar/AirHydroRD/airhydro_rd/platforms/android/app/src/main/AndroidManifest.xml:17:92-126
	android:authorities
		INJECTED from /Users/tushar/Tushar/AirHydroRD/airhydro_rd/platforms/android/app/src/main/AndroidManifest.xml
		ADDED from /Users/tushar/Tushar/AirHydroRD/airhydro_rd/platforms/android/app/src/main/AndroidManifest.xml:17:19-66
	android:exported
		ADDED from /Users/tushar/Tushar/AirHydroRD/airhydro_rd/platforms/android/app/src/main/AndroidManifest.xml:17:67-91
	android:name
		ADDED from /Users/tushar/Tushar/AirHydroRD/airhydro_rd/platforms/android/app/src/main/AndroidManifest.xml:17:127-184
manifest
ADDED from /Users/tushar/Tushar/AirHydroRD/airhydro_rd/platforms/android/app/src/main/AndroidManifest.xml:2:1-28:12
INJECTED from /Users/tushar/Tushar/AirHydroRD/airhydro_rd/platforms/android/app/src/main/AndroidManifest.xml:2:1-28:12
INJECTED from /Users/tushar/Tushar/AirHydroRD/airhydro_rd/platforms/android/app/src/main/AndroidManifest.xml:2:1-28:12
INJECTED from /Users/tushar/Tushar/AirHydroRD/airhydro_rd/platforms/android/app/src/main/AndroidManifest.xml:2:1-28:12
MERGED from [:barcodescanner-release-2.1.5:] /Users/tushar/.gradle/caches/transforms-1/files-1.1/barcodescanner-release-2.1.5.aar/3f6e6d9203f6c56b45e97568975da579/AndroidManifest.xml:2:1-14:12
MERGED from [com.android.support:support-v4:27.1.1] /Users/tushar/.gradle/caches/transforms-1/files-1.1/support-v4-27.1.1.aar/93099e9f6a04c8e53de686020cf083f6/AndroidManifest.xml:17:1-22:12
MERGED from [:CordovaLib] /Users/tushar/Tushar/AirHydroRD/airhydro_rd/platforms/android/CordovaLib/build/intermediates/manifests/full/release/AndroidManifest.xml:20:1-27:12
MERGED from [com.android.support:support-media-compat:27.1.1] /Users/tushar/.gradle/caches/transforms-1/files-1.1/support-media-compat-27.1.1.aar/2d4000346bb67fb7ca79f469141b927f/AndroidManifest.xml:17:1-22:12
MERGED from [com.android.support:support-fragment:27.1.1] /Users/tushar/.gradle/caches/transforms-1/files-1.1/support-fragment-27.1.1.aar/c03f77e14c2df460e91950e0a46dc119/AndroidManifest.xml:17:1-22:12
MERGED from [com.android.support:support-core-ui:27.1.1] /Users/tushar/.gradle/caches/transforms-1/files-1.1/support-core-ui-27.1.1.aar/669f9a6f20b376444f1c7fd34bccf9f9/AndroidManifest.xml:17:1-22:12
MERGED from [com.android.support:support-core-utils:27.1.1] /Users/tushar/.gradle/caches/transforms-1/files-1.1/support-core-utils-27.1.1.aar/6d8497e5053d818d88177ecc73e74f8c/AndroidManifest.xml:17:1-22:12
MERGED from [com.android.support:support-compat:27.1.1] /Users/tushar/.gradle/caches/transforms-1/files-1.1/support-compat-27.1.1.aar/fc2a15fe46c82ea791ecad7d50a06a8d/AndroidManifest.xml:17:1-22:12
MERGED from [android.arch.lifecycle:runtime:1.1.0] /Users/tushar/.gradle/caches/transforms-1/files-1.1/runtime-1.1.0.aar/df2807d7a016b8c86c33c389497c3e2d/AndroidManifest.xml:17:1-22:12
MERGED from [android.arch.lifecycle:livedata-core:1.1.0] /Users/tushar/.gradle/caches/transforms-1/files-1.1/livedata-core-1.1.0.aar/d5f1ac96cf526e560cd9d354ed4a8f4f/AndroidManifest.xml:17:1-22:12
MERGED from [android.arch.lifecycle:viewmodel:1.1.0] /Users/tushar/.gradle/caches/transforms-1/files-1.1/viewmodel-1.1.0.aar/35a4c66268b7d9a6d73b497ddb2ea016/AndroidManifest.xml:17:1-22:12
MERGED from [android.arch.core:runtime:1.1.0] /Users/tushar/.gradle/caches/transforms-1/files-1.1/runtime-1.1.0.aar/0916d90b38a50c0394c15d35c30c4187/AndroidManifest.xml:17:1-22:12
INJECTED from /Users/tushar/Tushar/AirHydroRD/airhydro_rd/platforms/android/app/src/main/AndroidManifest.xml:2:1-28:12
INJECTED from /Users/tushar/Tushar/AirHydroRD/airhydro_rd/platforms/android/app/src/main/AndroidManifest.xml:2:1-28:12
INJECTED from /Users/tushar/Tushar/AirHydroRD/airhydro_rd/platforms/android/app/src/main/AndroidManifest.xml:2:1-28:12
	package
		ADDED from /Users/tushar/Tushar/AirHydroRD/airhydro_rd/platforms/android/app/src/main/AndroidManifest.xml:2:98-139
		INJECTED from /Users/tushar/Tushar/AirHydroRD/airhydro_rd/platforms/android/app/src/main/AndroidManifest.xml
		INJECTED from /Users/tushar/Tushar/AirHydroRD/airhydro_rd/platforms/android/app/src/main/AndroidManifest.xml
	android:versionName
		ADDED from /Users/tushar/Tushar/AirHydroRD/airhydro_rd/platforms/android/app/src/main/AndroidManifest.xml:2:70-97
		INJECTED from /Users/tushar/Tushar/AirHydroRD/airhydro_rd/platforms/android/app/src/main/AndroidManifest.xml
		INJECTED from /Users/tushar/Tushar/AirHydroRD/airhydro_rd/platforms/android/app/src/main/AndroidManifest.xml
	android:hardwareAccelerated
		ADDED from /Users/tushar/Tushar/AirHydroRD/airhydro_rd/platforms/android/app/src/main/AndroidManifest.xml:2:11-45
	xmlns:android
		ADDED from /Users/tushar/Tushar/AirHydroRD/airhydro_rd/platforms/android/app/src/main/AndroidManifest.xml:2:140-198
	android:versionCode
		ADDED from /Users/tushar/Tushar/AirHydroRD/airhydro_rd/platforms/android/app/src/main/AndroidManifest.xml:2:46-69
		INJECTED from /Users/tushar/Tushar/AirHydroRD/airhydro_rd/platforms/android/app/src/main/AndroidManifest.xml
		INJECTED from /Users/tushar/Tushar/AirHydroRD/airhydro_rd/platforms/android/app/src/main/AndroidManifest.xml
supports-screens
ADDED from /Users/tushar/Tushar/AirHydroRD/airhydro_rd/platforms/android/app/src/main/AndroidManifest.xml:3:5-191
	android:largeScreens
		ADDED from /Users/tushar/Tushar/AirHydroRD/airhydro_rd/platforms/android/app/src/main/AndroidManifest.xml:3:49-76
	android:smallScreens
		ADDED from /Users/tushar/Tushar/AirHydroRD/airhydro_rd/platforms/android/app/src/main/AndroidManifest.xml:3:132-159
	android:normalScreens
		ADDED from /Users/tushar/Tushar/AirHydroRD/airhydro_rd/platforms/android/app/src/main/AndroidManifest.xml:3:77-105
	android:xlargeScreens
		ADDED from /Users/tushar/Tushar/AirHydroRD/airhydro_rd/platforms/android/app/src/main/AndroidManifest.xml:3:160-188
	android:resizeable
		ADDED from /Users/tushar/Tushar/AirHydroRD/airhydro_rd/platforms/android/app/src/main/AndroidManifest.xml:3:106-131
	android:anyDensity
		ADDED from /Users/tushar/Tushar/AirHydroRD/airhydro_rd/platforms/android/app/src/main/AndroidManifest.xml:3:23-48
uses-permission#android.permission.INTERNET
ADDED from /Users/tushar/Tushar/AirHydroRD/airhydro_rd/platforms/android/app/src/main/AndroidManifest.xml:4:5-67
	android:name
		ADDED from /Users/tushar/Tushar/AirHydroRD/airhydro_rd/platforms/android/app/src/main/AndroidManifest.xml:4:22-64
application
ADDED from /Users/tushar/Tushar/AirHydroRD/airhydro_rd/platforms/android/app/src/main/AndroidManifest.xml:5:5-20:19
MERGED from [:barcodescanner-release-2.1.5:] /Users/tushar/.gradle/caches/transforms-1/files-1.1/barcodescanner-release-2.1.5.aar/3f6e6d9203f6c56b45e97568975da579/AndroidManifest.xml:11:5-12:19
MERGED from [:barcodescanner-release-2.1.5:] /Users/tushar/.gradle/caches/transforms-1/files-1.1/barcodescanner-release-2.1.5.aar/3f6e6d9203f6c56b45e97568975da579/AndroidManifest.xml:11:5-12:19
	android:supportsRtl
		ADDED from /Users/tushar/Tushar/AirHydroRD/airhydro_rd/platforms/android/app/src/main/AndroidManifest.xml:5:114-140
	android:label
		ADDED from /Users/tushar/Tushar/AirHydroRD/airhydro_rd/platforms/android/app/src/main/AndroidManifest.xml:5:81-113
	android:hardwareAccelerated
		ADDED from /Users/tushar/Tushar/AirHydroRD/airhydro_rd/platforms/android/app/src/main/AndroidManifest.xml:5:18-52
	android:icon
		ADDED from /Users/tushar/Tushar/AirHydroRD/airhydro_rd/platforms/android/app/src/main/AndroidManifest.xml:5:53-80
activity#com.comparatio.ahrepairdivision.MainActivity
ADDED from /Users/tushar/Tushar/AirHydroRD/airhydro_rd/platforms/android/app/src/main/AndroidManifest.xml:6:9-11:20
	android:screenOrientation
		ADDED from /Users/tushar/Tushar/AirHydroRD/airhydro_rd/platforms/android/app/src/main/AndroidManifest.xml:6:194-230
	android:label
		ADDED from /Users/tushar/Tushar/AirHydroRD/airhydro_rd/platforms/android/app/src/main/AndroidManifest.xml:6:97-134
	android:launchMode
		ADDED from /Users/tushar/Tushar/AirHydroRD/airhydro_rd/platforms/android/app/src/main/AndroidManifest.xml:6:135-165
	android:windowSoftInputMode
		ADDED from /Users/tushar/Tushar/AirHydroRD/airhydro_rd/platforms/android/app/src/main/AndroidManifest.xml:6:294-336
	android:configChanges
		ADDED from /Users/tushar/Tushar/AirHydroRD/airhydro_rd/platforms/android/app/src/main/AndroidManifest.xml:6:19-96
	android:theme
		ADDED from /Users/tushar/Tushar/AirHydroRD/airhydro_rd/platforms/android/app/src/main/AndroidManifest.xml:6:231-293
	android:name
		ADDED from /Users/tushar/Tushar/AirHydroRD/airhydro_rd/platforms/android/app/src/main/AndroidManifest.xml:6:166-193
intent-filter#android.intent.action.MAIN+android.intent.category.LAUNCHER
ADDED from /Users/tushar/Tushar/AirHydroRD/airhydro_rd/platforms/android/app/src/main/AndroidManifest.xml:7:13-10:29
	android:label
		ADDED from /Users/tushar/Tushar/AirHydroRD/airhydro_rd/platforms/android/app/src/main/AndroidManifest.xml:7:28-65
action#android.intent.action.MAIN
ADDED from /Users/tushar/Tushar/AirHydroRD/airhydro_rd/platforms/android/app/src/main/AndroidManifest.xml:8:17-69
	android:name
		ADDED from /Users/tushar/Tushar/AirHydroRD/airhydro_rd/platforms/android/app/src/main/AndroidManifest.xml:8:25-66
category#android.intent.category.LAUNCHER
ADDED from /Users/tushar/Tushar/AirHydroRD/airhydro_rd/platforms/android/app/src/main/AndroidManifest.xml:9:17-77
	android:name
		ADDED from /Users/tushar/Tushar/AirHydroRD/airhydro_rd/platforms/android/app/src/main/AndroidManifest.xml:9:27-74
activity#com.google.zxing.client.android.CaptureActivity
ADDED from /Users/tushar/Tushar/AirHydroRD/airhydro_rd/platforms/android/app/src/main/AndroidManifest.xml:15:9-311
	android:clearTaskOnLaunch
		ADDED from /Users/tushar/Tushar/AirHydroRD/airhydro_rd/platforms/android/app/src/main/AndroidManifest.xml:15:19-51
	android:windowSoftInputMode
		ADDED from /Users/tushar/Tushar/AirHydroRD/airhydro_rd/platforms/android/app/src/main/AndroidManifest.xml:15:261-308
	android:exported
		ADDED from /Users/tushar/Tushar/AirHydroRD/airhydro_rd/platforms/android/app/src/main/AndroidManifest.xml:15:114-138
	android:configChanges
		ADDED from /Users/tushar/Tushar/AirHydroRD/airhydro_rd/platforms/android/app/src/main/AndroidManifest.xml:15:52-113
	android:theme
		ADDED from /Users/tushar/Tushar/AirHydroRD/airhydro_rd/platforms/android/app/src/main/AndroidManifest.xml:15:202-260
	android:name
		ADDED from /Users/tushar/Tushar/AirHydroRD/airhydro_rd/platforms/android/app/src/main/AndroidManifest.xml:15:139-201
activity#com.google.zxing.client.android.encode.EncodeActivity
ADDED from /Users/tushar/Tushar/AirHydroRD/airhydro_rd/platforms/android/app/src/main/AndroidManifest.xml:16:9-112
	android:label
		ADDED from /Users/tushar/Tushar/AirHydroRD/airhydro_rd/platforms/android/app/src/main/AndroidManifest.xml:16:19-40
	android:name
		ADDED from /Users/tushar/Tushar/AirHydroRD/airhydro_rd/platforms/android/app/src/main/AndroidManifest.xml:16:41-109
uses-sdk
ADDED from /Users/tushar/Tushar/AirHydroRD/airhydro_rd/platforms/android/app/src/main/AndroidManifest.xml:21:5-74
MERGED from [:barcodescanner-release-2.1.5:] /Users/tushar/.gradle/caches/transforms-1/files-1.1/barcodescanner-release-2.1.5.aar/3f6e6d9203f6c56b45e97568975da579/AndroidManifest.xml:7:5-9:41
MERGED from [:barcodescanner-release-2.1.5:] /Users/tushar/.gradle/caches/transforms-1/files-1.1/barcodescanner-release-2.1.5.aar/3f6e6d9203f6c56b45e97568975da579/AndroidManifest.xml:7:5-9:41
MERGED from [com.android.support:support-v4:27.1.1] /Users/tushar/.gradle/caches/transforms-1/files-1.1/support-v4-27.1.1.aar/93099e9f6a04c8e53de686020cf083f6/AndroidManifest.xml:20:5-44
MERGED from [com.android.support:support-v4:27.1.1] /Users/tushar/.gradle/caches/transforms-1/files-1.1/support-v4-27.1.1.aar/93099e9f6a04c8e53de686020cf083f6/AndroidManifest.xml:20:5-44
MERGED from [:CordovaLib] /Users/tushar/Tushar/AirHydroRD/airhydro_rd/platforms/android/CordovaLib/build/intermediates/manifests/full/release/AndroidManifest.xml:25:5-44
MERGED from [:CordovaLib] /Users/tushar/Tushar/AirHydroRD/airhydro_rd/platforms/android/CordovaLib/build/intermediates/manifests/full/release/AndroidManifest.xml:25:5-44
MERGED from [com.android.support:support-media-compat:27.1.1] /Users/tushar/.gradle/caches/transforms-1/files-1.1/support-media-compat-27.1.1.aar/2d4000346bb67fb7ca79f469141b927f/AndroidManifest.xml:20:5-44
MERGED from [com.android.support:support-media-compat:27.1.1] /Users/tushar/.gradle/caches/transforms-1/files-1.1/support-media-compat-27.1.1.aar/2d4000346bb67fb7ca79f469141b927f/AndroidManifest.xml:20:5-44
MERGED from [com.android.support:support-fragment:27.1.1] /Users/tushar/.gradle/caches/transforms-1/files-1.1/support-fragment-27.1.1.aar/c03f77e14c2df460e91950e0a46dc119/AndroidManifest.xml:20:5-44
MERGED from [com.android.support:support-fragment:27.1.1] /Users/tushar/.gradle/caches/transforms-1/files-1.1/support-fragment-27.1.1.aar/c03f77e14c2df460e91950e0a46dc119/AndroidManifest.xml:20:5-44
MERGED from [com.android.support:support-core-ui:27.1.1] /Users/tushar/.gradle/caches/transforms-1/files-1.1/support-core-ui-27.1.1.aar/669f9a6f20b376444f1c7fd34bccf9f9/AndroidManifest.xml:20:5-44
MERGED from [com.android.support:support-core-ui:27.1.1] /Users/tushar/.gradle/caches/transforms-1/files-1.1/support-core-ui-27.1.1.aar/669f9a6f20b376444f1c7fd34bccf9f9/AndroidManifest.xml:20:5-44
MERGED from [com.android.support:support-core-utils:27.1.1] /Users/tushar/.gradle/caches/transforms-1/files-1.1/support-core-utils-27.1.1.aar/6d8497e5053d818d88177ecc73e74f8c/AndroidManifest.xml:20:5-44
MERGED from [com.android.support:support-core-utils:27.1.1] /Users/tushar/.gradle/caches/transforms-1/files-1.1/support-core-utils-27.1.1.aar/6d8497e5053d818d88177ecc73e74f8c/AndroidManifest.xml:20:5-44
MERGED from [com.android.support:support-compat:27.1.1] /Users/tushar/.gradle/caches/transforms-1/files-1.1/support-compat-27.1.1.aar/fc2a15fe46c82ea791ecad7d50a06a8d/AndroidManifest.xml:20:5-44
MERGED from [com.android.support:support-compat:27.1.1] /Users/tushar/.gradle/caches/transforms-1/files-1.1/support-compat-27.1.1.aar/fc2a15fe46c82ea791ecad7d50a06a8d/AndroidManifest.xml:20:5-44
MERGED from [android.arch.lifecycle:runtime:1.1.0] /Users/tushar/.gradle/caches/transforms-1/files-1.1/runtime-1.1.0.aar/df2807d7a016b8c86c33c389497c3e2d/AndroidManifest.xml:20:5-44
MERGED from [android.arch.lifecycle:runtime:1.1.0] /Users/tushar/.gradle/caches/transforms-1/files-1.1/runtime-1.1.0.aar/df2807d7a016b8c86c33c389497c3e2d/AndroidManifest.xml:20:5-44
MERGED from [android.arch.lifecycle:livedata-core:1.1.0] /Users/tushar/.gradle/caches/transforms-1/files-1.1/livedata-core-1.1.0.aar/d5f1ac96cf526e560cd9d354ed4a8f4f/AndroidManifest.xml:20:5-44
MERGED from [android.arch.lifecycle:livedata-core:1.1.0] /Users/tushar/.gradle/caches/transforms-1/files-1.1/livedata-core-1.1.0.aar/d5f1ac96cf526e560cd9d354ed4a8f4f/AndroidManifest.xml:20:5-44
MERGED from [android.arch.lifecycle:viewmodel:1.1.0] /Users/tushar/.gradle/caches/transforms-1/files-1.1/viewmodel-1.1.0.aar/35a4c66268b7d9a6d73b497ddb2ea016/AndroidManifest.xml:20:5-44
MERGED from [android.arch.lifecycle:viewmodel:1.1.0] /Users/tushar/.gradle/caches/transforms-1/files-1.1/viewmodel-1.1.0.aar/35a4c66268b7d9a6d73b497ddb2ea016/AndroidManifest.xml:20:5-44
MERGED from [android.arch.core:runtime:1.1.0] /Users/tushar/.gradle/caches/transforms-1/files-1.1/runtime-1.1.0.aar/0916d90b38a50c0394c15d35c30c4187/AndroidManifest.xml:20:5-44
MERGED from [android.arch.core:runtime:1.1.0] /Users/tushar/.gradle/caches/transforms-1/files-1.1/runtime-1.1.0.aar/0916d90b38a50c0394c15d35c30c4187/AndroidManifest.xml:20:5-44
	android:targetSdkVersion
		ADDED from /Users/tushar/Tushar/AirHydroRD/airhydro_rd/platforms/android/app/src/main/AndroidManifest.xml:21:42-71
	android:minSdkVersion
		ADDED from /Users/tushar/Tushar/AirHydroRD/airhydro_rd/platforms/android/app/src/main/AndroidManifest.xml:21:15-41
uses-permission#android.permission.WRITE_EXTERNAL_STORAGE
ADDED from /Users/tushar/Tushar/AirHydroRD/airhydro_rd/platforms/android/app/src/main/AndroidManifest.xml:22:5-81
	android:name
		ADDED from /Users/tushar/Tushar/AirHydroRD/airhydro_rd/platforms/android/app/src/main/AndroidManifest.xml:22:22-78
uses-permission#android.permission.ACCESS_NETWORK_STATE
ADDED from /Users/tushar/Tushar/AirHydroRD/airhydro_rd/platforms/android/app/src/main/AndroidManifest.xml:23:5-79
	android:name
		ADDED from /Users/tushar/Tushar/AirHydroRD/airhydro_rd/platforms/android/app/src/main/AndroidManifest.xml:23:22-76
uses-permission#android.permission.CAMERA
ADDED from /Users/tushar/Tushar/AirHydroRD/airhydro_rd/platforms/android/app/src/main/AndroidManifest.xml:24:5-65
	android:name
		ADDED from /Users/tushar/Tushar/AirHydroRD/airhydro_rd/platforms/android/app/src/main/AndroidManifest.xml:24:22-62
uses-permission#android.permission.FLASHLIGHT
ADDED from /Users/tushar/Tushar/AirHydroRD/airhydro_rd/platforms/android/app/src/main/AndroidManifest.xml:25:5-69
	android:name
		ADDED from /Users/tushar/Tushar/AirHydroRD/airhydro_rd/platforms/android/app/src/main/AndroidManifest.xml:25:22-66
uses-feature#android.hardware.camera
ADDED from /Users/tushar/Tushar/AirHydroRD/airhydro_rd/platforms/android/app/src/main/AndroidManifest.xml:26:5-84
	android:required
		ADDED from /Users/tushar/Tushar/AirHydroRD/airhydro_rd/platforms/android/app/src/main/AndroidManifest.xml:26:58-81
	android:name
		ADDED from /Users/tushar/Tushar/AirHydroRD/airhydro_rd/platforms/android/app/src/main/AndroidManifest.xml:26:19-57
uses-permission#android.permission.GET_ACCOUNTS
ADDED from /Users/tushar/Tushar/AirHydroRD/airhydro_rd/platforms/android/app/src/main/AndroidManifest.xml:27:5-71
	android:name
		ADDED from /Users/tushar/Tushar/AirHydroRD/airhydro_rd/platforms/android/app/src/main/AndroidManifest.xml:27:22-68
meta-data#android.support.FILE_PROVIDER_PATHS
ADDED from /Users/tushar/Tushar/AirHydroRD/airhydro_rd/platforms/android/app/src/main/AndroidManifest.xml:13:13-123
	android:resource
		ADDED from /Users/tushar/Tushar/AirHydroRD/airhydro_rd/platforms/android/app/src/main/AndroidManifest.xml:13:75-120
	android:name
		ADDED from /Users/tushar/Tushar/AirHydroRD/airhydro_rd/platforms/android/app/src/main/AndroidManifest.xml:13:24-74
